%YAML 1.1
%TAG !u! tag:unity3d.com,2011:
--- !u!1 &1160036925649572515
GameObject:
  m_ObjectHideFlags: 0
  m_CorrespondingSourceObject: {fileID: 0}
  m_PrefabInstance: {fileID: 0}
  m_PrefabAsset: {fileID: 0}
  serializedVersion: 6
  m_Component:
  - component: {fileID: 3356215654613813441}
  - component: {fileID: 5554902407140615079}
  m_Layer: 0
  m_Name: Plant_Prefab
  m_TagString: Untagged
  m_Icon: {fileID: 0}
  m_NavMeshLayer: 0
  m_StaticEditorFlags: 122
  m_IsActive: 1
--- !u!4 &3356215654613813441
Transform:
  m_ObjectHideFlags: 0
  m_CorrespondingSourceObject: {fileID: 0}
  m_PrefabInstance: {fileID: 0}
  m_PrefabAsset: {fileID: 0}
  m_GameObject: {fileID: 1160036925649572515}
  m_LocalRotation: {x: 0, y: 0, z: 0, w: 1}
  m_LocalPosition: {x: 0, y: 0, z: 0}
  m_LocalScale: {x: 1, y: 1, z: 1}
  m_Children:
  - {fileID: 3561162593268736603}
  m_Father: {fileID: 0}
  m_RootOrder: 0
  m_LocalEulerAnglesHint: {x: 0, y: 0, z: 0}
--- !u!205 &5554902407140615079
LODGroup:
  m_ObjectHideFlags: 0
  m_CorrespondingSourceObject: {fileID: 0}
  m_PrefabInstance: {fileID: 0}
  m_PrefabAsset: {fileID: 0}
  m_GameObject: {fileID: 1160036925649572515}
  serializedVersion: 2
  m_LocalReferencePoint: {x: 0.15134245, y: 0.73674405, z: -0.020650744}
  m_Size: 1
  m_FadeMode: 0
  m_AnimateCrossFading: 0
  m_LastLODIsBillboard: 0
  m_LODs:
  - screenRelativeHeight: 0.04645828
    fadeTransitionWidth: 0
    renderers:
    - renderer: {fileID: 2387161094229514548}
  m_Enabled: 1
--- !u!1001 &3954569490109056432
PrefabInstance:
  m_ObjectHideFlags: 0
  serializedVersion: 2
  m_Modification:
    m_TransformParent: {fileID: 3356215654613813441}
    m_Modifications:
    - target: {fileID: -8679921383154817045, guid: 2eee17247544577419b87dbd9781c36c, type: 3}
      propertyPath: m_RootOrder
      value: 0
      objectReference: {fileID: 0}
    - target: {fileID: -8679921383154817045, guid: 2eee17247544577419b87dbd9781c36c, type: 3}
      propertyPath: m_LocalPosition.x
      value: 0
      objectReference: {fileID: 0}
    - target: {fileID: -8679921383154817045, guid: 2eee17247544577419b87dbd9781c36c, type: 3}
      propertyPath: m_LocalPosition.y
      value: 0
      objectReference: {fileID: 0}
    - target: {fileID: -8679921383154817045, guid: 2eee17247544577419b87dbd9781c36c, type: 3}
      propertyPath: m_LocalPosition.z
      value: 0
      objectReference: {fileID: 0}
    - target: {fileID: -8679921383154817045, guid: 2eee17247544577419b87dbd9781c36c, type: 3}
      propertyPath: m_LocalRotation.w
      value: 1
      objectReference: {fileID: 0}
    - target: {fileID: -8679921383154817045, guid: 2eee17247544577419b87dbd9781c36c, type: 3}
      propertyPath: m_LocalRotation.x
      value: 0
      objectReference: {fileID: 0}
    - target: {fileID: -8679921383154817045, guid: 2eee17247544577419b87dbd9781c36c, type: 3}
      propertyPath: m_LocalRotation.y
      value: 0
      objectReference: {fileID: 0}
    - target: {fileID: -8679921383154817045, guid: 2eee17247544577419b87dbd9781c36c, type: 3}
      propertyPath: m_LocalRotation.z
      value: 0
      objectReference: {fileID: 0}
    - target: {fileID: -8679921383154817045, guid: 2eee17247544577419b87dbd9781c36c, type: 3}
      propertyPath: m_LocalEulerAnglesHint.x
      value: 0
      objectReference: {fileID: 0}
    - target: {fileID: -8679921383154817045, guid: 2eee17247544577419b87dbd9781c36c, type: 3}
      propertyPath: m_LocalEulerAnglesHint.y
      value: 0
      objectReference: {fileID: 0}
    - target: {fileID: -8679921383154817045, guid: 2eee17247544577419b87dbd9781c36c, type: 3}
      propertyPath: m_LocalEulerAnglesHint.z
      value: 0
      objectReference: {fileID: 0}
    - target: {fileID: -7511558181221131132, guid: 2eee17247544577419b87dbd9781c36c, type: 3}
      propertyPath: m_CastShadows
      value: 0
      objectReference: {fileID: 0}
    - target: {fileID: 919132149155446097, guid: 2eee17247544577419b87dbd9781c36c, type: 3}
      propertyPath: m_Name
      value: Plant_Mesh
      objectReference: {fileID: 0}
    - target: {fileID: 919132149155446097, guid: 2eee17247544577419b87dbd9781c36c, type: 3}
      propertyPath: m_StaticEditorFlags
      value: 122
      objectReference: {fileID: 0}
    m_RemovedComponents: []
  m_SourcePrefab: {fileID: 100100000, guid: 2eee17247544577419b87dbd9781c36c, type: 3}
--- !u!4 &3561162593268736603 stripped
Transform:
  m_CorrespondingSourceObject: {fileID: -8679921383154817045, guid: 2eee17247544577419b87dbd9781c36c, type: 3}
  m_PrefabInstance: {fileID: 3954569490109056432}
  m_PrefabAsset: {fileID: 0}
--- !u!23 &2387161094229514548 stripped
MeshRenderer:
  m_CorrespondingSourceObject: {fileID: -7511558181221131132, guid: 2eee17247544577419b87dbd9781c36c, type: 3}
  m_PrefabInstance: {fileID: 3954569490109056432}
  m_PrefabAsset: {fileID: 0}
