%YAML 1.1
%TAG !u! tag:unity3d.com,2011:
--- !u!114 &11400000
MonoBehaviour:
  m_ObjectHideFlags: 0
  m_CorrespondingSourceObject: {fileID: 0}
  m_PrefabInstance: {fileID: 0}
  m_PrefabAsset: {fileID: 0}
  m_GameObject: {fileID: 0}
  m_Enabled: 1
  m_EditorHideFlags: 0
  m_Script: {fileID: 11500000, guid: 3970bcba72f934a49b90b0bc2e303ddc, type: 3}
  m_Name: 2FDFEF14-10AC-4A6E-B60E-DF211A7A65B1
  m_EditorClassIdentifier: 
  objectName: Ocean
  id: 3802555985
  guid: 2FDFEF14-10AC-4A6E-B60E-DF211A7A65B1
