%YAML 1.1
%TAG !u! tag:unity3d.com,2011:
--- !u!114 &11400000
MonoBehaviour:
  m_ObjectHideFlags: 0
  m_CorrespondingSourceObject: {fileID: 0}
  m_PrefabInstance: {fileID: 0}
  m_PrefabAsset: {fileID: 0}
  m_GameObject: {fileID: 0}
  m_Enabled: 1
  m_EditorHideFlags: 0
  m_Script: {fileID: 11500000, guid: 3970bcba72f934a49b90b0bc2e303ddc, type: 3}
  m_Name: A4DADE93-4E06-47AC-BF10-FF62ED8E0951
  m_EditorClassIdentifier: 
  objectName: Wind
  id: 1537061107
  guid: A4DADE93-4E06-47AC-BF10-FF62ED8E0951
