%YAML 1.1
%TAG !u! tag:unity3d.com,2011:
--- !u!114 &11400000
MonoBehaviour:
  m_ObjectHideFlags: 0
  m_CorrespondingSourceObject: {fileID: 0}
  m_PrefabInstance: {fileID: 0}
  m_PrefabAsset: {fileID: 0}
  m_GameObject: {fileID: 0}
  m_Enabled: 1
  m_EditorHideFlags: 0
  m_Script: {fileID: 11500000, guid: 3970bcba72f934a49b90b0bc2e303ddc, type: 3}
  m_Name: BB5CE600-DA11-4699-90BA-394297017893
  m_EditorClassIdentifier: 
  objectName: Rain
  id: 2043403999
  guid: BB5CE600-DA11-4699-90BA-394297017893
