%YAML 1.1
%TAG !u! tag:unity3d.com,2011:
--- !u!114 &-7649160548283502756
MonoBehaviour:
  m_ObjectHideFlags: 11
  m_CorrespondingSourceObject: {fileID: 0}
  m_PrefabInstance: {fileID: 0}
  m_PrefabAsset: {fileID: 0}
  m_GameObject: {fileID: 0}
  m_Enabled: 1
  m_EditorHideFlags: 0
  m_Script: {fileID: 11500000, guid: da692e001514ec24dbc4cca1949ff7e8, type: 3}
  m_Name: 
  m_EditorClassIdentifier: 
  version: 11
--- !u!21 &2100000
Material:
  serializedVersion: 6
  m_ObjectHideFlags: 0
  m_CorrespondingSourceObject: {fileID: 0}
  m_PrefabInstance: {fileID: 0}
  m_PrefabAsset: {fileID: 0}
  m_Name: MAT_Fire_Particle
  m_Shader: {fileID: -6465566751694194690, guid: a4cb3970814eec844a95d2502b36c28c, type: 3}
  m_ShaderKeywords: _DOUBLESIDED_ON _SURFACE_TYPE_TRANSPARENT
  m_LightmapFlags: 4
  m_EnableInstancingVariants: 0
  m_DoubleSidedGI: 1
  m_CustomRenderQueue: 3000
  stringTagMap:
    MotionVector: User
    RenderType: Transparent
  disabledShaderPasses:
  - MOTIONVECTORS
  - TransparentDepthPrepass
  - TransparentDepthPostpass
  - TransparentBackface
  m_SavedProperties:
    serializedVersion: 3
    m_TexEnvs:
    - _SampleTexture2D_1623d10a2a464dc6ba675c46e1aa481d_Texture_1:
        m_Texture: {fileID: 2800000, guid: a5fb73842bb665e4da803f8e6095a003, type: 3}
        m_Scale: {x: 1, y: 1}
        m_Offset: {x: 0, y: 0}
    - _SampleTexture2D_19db73013ca440e4bbfcd0baec317cee_Texture_1:
        m_Texture: {fileID: 2800000, guid: a5fb73842bb665e4da803f8e6095a003, type: 3}
        m_Scale: {x: 1, y: 1}
        m_Offset: {x: 0, y: 0}
    - _SampleTexture2D_1b41ebc49e7e462683c50de4797b430f_Texture_1:
        m_Texture: {fileID: 2800000, guid: a5fb73842bb665e4da803f8e6095a003, type: 3}
        m_Scale: {x: 1, y: 1}
        m_Offset: {x: 0, y: 0}
    - _SampleTexture2D_3193172e515245638ea53e084be0af5b_Texture_1:
        m_Texture: {fileID: 2800000, guid: a5fb73842bb665e4da803f8e6095a003, type: 3}
        m_Scale: {x: 1, y: 1}
        m_Offset: {x: 0, y: 0}
    - _SampleTexture2D_7a64fd85b0bd4940bbf01b9779e15d6d_Texture_1:
        m_Texture: {fileID: 2800000, guid: a5fb73842bb665e4da803f8e6095a003, type: 3}
        m_Scale: {x: 1, y: 1}
        m_Offset: {x: 0, y: 0}
    - _SampleTexture2D_a8f1d78f7a5146cb9d3e1783e31448c8_Texture_1:
        m_Texture: {fileID: 2800000, guid: 6a3d0b765f14c934c8e363e87c639029, type: 3}
        m_Scale: {x: 1, y: 1}
        m_Offset: {x: 0, y: 0}
    - _SampleTexture2D_e5d340f72d564105bb499ee187a1f72a_Texture_1:
        m_Texture: {fileID: 2800000, guid: a5fb73842bb665e4da803f8e6095a003, type: 3}
        m_Scale: {x: 1, y: 1}
        m_Offset: {x: 0, y: 0}
    - unity_Lightmaps:
        m_Texture: {fileID: 0}
        m_Scale: {x: 1, y: 1}
        m_Offset: {x: 0, y: 0}
    - unity_LightmapsInd:
        m_Texture: {fileID: 0}
        m_Scale: {x: 1, y: 1}
        m_Offset: {x: 0, y: 0}
    - unity_ShadowMasks:
        m_Texture: {fileID: 0}
        m_Scale: {x: 1, y: 1}
        m_Offset: {x: 0, y: 0}
    m_Ints: []
    m_Floats:
    - Cell_Density: 2
    - Fire_Density: 0.5
    - Gradient_Scale: 3.2
    - Mask_Offset_A: -0.3
    - Mask_Offset_B: 0.7
    - Mask_Offset_C: -0.9
    - Mask_Rot_A: -1.35
    - Mask_Rot_B: -13.8
    - Speed: 1.25
    - UV_Dist_Blend: 0.8
    - UV_Dist_Blend_A: 0.8
    - Voronoir_Density: 2.5
    - _AddPrecomputedVelocity: 0
    - _AlphaCutoffEnable: 0
    - _AlphaDstBlend: 10
    - _AlphaSrcBlend: 1
    - _AlphaToMask: 0
    - _AlphaToMaskInspectorValue: 0
    - _BlendMode: 0
    - _CullMode: 0
    - _CullModeForward: 0
    - _DepthOffsetEnable: 0
    - _DoubleSidedEnable: 1
    - _DoubleSidedNormalMode: 2
    - _DstBlend: 10
    - _EnableBlendModePreserveSpecularLighting: 0
    - _EnableFogOnTransparent: 0
    - _OpaqueCullMode: 2
    - _RenderQueueType: 4
    - _SrcBlend: 1
    - _StencilRef: 0
    - _StencilRefDepth: 0
    - _StencilRefDistortionVec: 4
    - _StencilRefGBuffer: 2
    - _StencilRefMV: 32
    - _StencilWriteMask: 6
    - _StencilWriteMaskDepth: 8
    - _StencilWriteMaskDistortionVec: 4
    - _StencilWriteMaskGBuffer: 14
    - _StencilWriteMaskMV: 40
    - _SurfaceType: 1
    - _TransparentBackfaceEnable: 0
    - _TransparentCullMode: 2
    - _TransparentDepthPostpassEnable: 0
    - _TransparentDepthPrepassEnable: 0
    - _TransparentSortPriority: 0
    - _TransparentWritingMotionVec: 0
    - _TransparentZWrite: 0
    - _UseShadowThreshold: 0
    - _ZTestDepthEqualForOpaque: 4
    - _ZTestGBuffer: 4
    - _ZTestTransparent: 4
    - _ZWrite: 0
    m_Colors:
    - _Color: {r: 4.631145, g: 0.6181913, b: 0, a: 0}
    - _DoubleSidedConstants: {r: 1, g: 1, b: -1, a: 0}
    - _EmissionColor: {r: 1, g: 1, b: 1, a: 1}
  m_BuildTextureStacks: []
