%YAML 1.1
%TAG !u! tag:unity3d.com,2011:
--- !u!1 &957941009502265015
GameObject:
  m_ObjectHideFlags: 0
  m_CorrespondingSourceObject: {fileID: 0}
  m_PrefabInstance: {fileID: 0}
  m_PrefabAsset: {fileID: 0}
  serializedVersion: 6
  m_Component:
  - component: {fileID: 8499456763128793501}
  m_Layer: 0
  m_Name: Figure_Head
  m_TagString: Untagged
  m_Icon: {fileID: 0}
  m_NavMeshLayer: 0
  m_StaticEditorFlags: 0
  m_IsActive: 1
--- !u!4 &8499456763128793501
Transform:
  m_ObjectHideFlags: 0
  m_CorrespondingSourceObject: {fileID: 0}
  m_PrefabInstance: {fileID: 0}
  m_PrefabAsset: {fileID: 0}
  m_GameObject: {fileID: 957941009502265015}
  m_LocalRotation: {x: 0, y: 0, z: 0, w: 1}
  m_LocalPosition: {x: 0, y: 0, z: 0}
  m_LocalScale: {x: 1, y: 1, z: 1}
  m_Children:
  - {fileID: 4795086357322252406}
  m_Father: {fileID: 0}
  m_RootOrder: 0
  m_LocalEulerAnglesHint: {x: 0, y: 0, z: 0}
--- !u!1001 &4972300404206249885
PrefabInstance:
  m_ObjectHideFlags: 0
  serializedVersion: 2
  m_Modification:
    m_TransformParent: {fileID: 8499456763128793501}
    m_Modifications:
    - target: {fileID: -8679921383154817045, guid: c457116a3aa28f44ca23eac7cbd1903b, type: 3}
      propertyPath: m_RootOrder
      value: 0
      objectReference: {fileID: 0}
    - target: {fileID: -8679921383154817045, guid: c457116a3aa28f44ca23eac7cbd1903b, type: 3}
      propertyPath: m_LocalPosition.x
      value: 0
      objectReference: {fileID: 0}
    - target: {fileID: -8679921383154817045, guid: c457116a3aa28f44ca23eac7cbd1903b, type: 3}
      propertyPath: m_LocalPosition.y
      value: 0
      objectReference: {fileID: 0}
    - target: {fileID: -8679921383154817045, guid: c457116a3aa28f44ca23eac7cbd1903b, type: 3}
      propertyPath: m_LocalPosition.z
      value: 0
      objectReference: {fileID: 0}
    - target: {fileID: -8679921383154817045, guid: c457116a3aa28f44ca23eac7cbd1903b, type: 3}
      propertyPath: m_LocalRotation.w
      value: 1
      objectReference: {fileID: 0}
    - target: {fileID: -8679921383154817045, guid: c457116a3aa28f44ca23eac7cbd1903b, type: 3}
      propertyPath: m_LocalRotation.x
      value: 0
      objectReference: {fileID: 0}
    - target: {fileID: -8679921383154817045, guid: c457116a3aa28f44ca23eac7cbd1903b, type: 3}
      propertyPath: m_LocalRotation.y
      value: 0
      objectReference: {fileID: 0}
    - target: {fileID: -8679921383154817045, guid: c457116a3aa28f44ca23eac7cbd1903b, type: 3}
      propertyPath: m_LocalRotation.z
      value: 0
      objectReference: {fileID: 0}
    - target: {fileID: -8679921383154817045, guid: c457116a3aa28f44ca23eac7cbd1903b, type: 3}
      propertyPath: m_LocalEulerAnglesHint.x
      value: 0
      objectReference: {fileID: 0}
    - target: {fileID: -8679921383154817045, guid: c457116a3aa28f44ca23eac7cbd1903b, type: 3}
      propertyPath: m_LocalEulerAnglesHint.y
      value: 0
      objectReference: {fileID: 0}
    - target: {fileID: -8679921383154817045, guid: c457116a3aa28f44ca23eac7cbd1903b, type: 3}
      propertyPath: m_LocalEulerAnglesHint.z
      value: 0
      objectReference: {fileID: 0}
    - target: {fileID: -7511558181221131132, guid: c457116a3aa28f44ca23eac7cbd1903b, type: 3}
      propertyPath: m_Materials.Array.data[0]
      value: 
      objectReference: {fileID: 2100000, guid: b76280161ca9a904ba992a47a8803505, type: 2}
    - target: {fileID: 919132149155446097, guid: c457116a3aa28f44ca23eac7cbd1903b, type: 3}
      propertyPath: m_Name
      value: Figure_Head_LOW
      objectReference: {fileID: 0}
    m_RemovedComponents: []
  m_SourcePrefab: {fileID: 100100000, guid: c457116a3aa28f44ca23eac7cbd1903b, type: 3}
--- !u!4 &4795086357322252406 stripped
Transform:
  m_CorrespondingSourceObject: {fileID: -8679921383154817045, guid: c457116a3aa28f44ca23eac7cbd1903b, type: 3}
  m_PrefabInstance: {fileID: 4972300404206249885}
  m_PrefabAsset: {fileID: 0}
