%YAML 1.1
%TAG !u! tag:unity3d.com,2011:
--- !u!114 &11400000
MonoBehaviour:
  m_ObjectHideFlags: 0
  m_CorrespondingSourceObject: {fileID: 0}
  m_PrefabInstance: {fileID: 0}
  m_PrefabAsset: {fileID: 0}
  m_GameObject: {fileID: 0}
  m_Enabled: 1
  m_EditorHideFlags: 0
  m_Script: {fileID: 11500000, guid: 806f31936fc22a04f88eea47f4f9868a, type: 3}
  m_Name: 909FE42C-36CC-4727-B27B-EB2383093D31
  m_EditorClassIdentifier: 
  objectName: Play_Spiritway_Game_Over
  id: 3262293480
  guid: 909FE42C-36CC-4727-B27B-EB2383093D31
