%YAML 1.1
%TAG !u! tag:unity3d.com,2011:
--- !u!21 &-2161519926005067393
Material:
  serializedVersion: 6
  m_ObjectHideFlags: 0
  m_CorrespondingSourceObject: {fileID: 0}
  m_PrefabInstance: {fileID: 0}
  m_PrefabAsset: {fileID: 0}
  m_Name: MYRIADPRO-REGULAR Atlas Material
  m_Shader: {fileID: 4800000, guid: 62b6d79d475fb5147ab93c75dede1914, type: 3}
  m_ShaderKeywords: 
  m_LightmapFlags: 4
  m_EnableInstancingVariants: 0
  m_DoubleSidedGI: 0
  m_CustomRenderQueue: -1
  stringTagMap: {}
  disabledShaderPasses: []
  m_SavedProperties:
    serializedVersion: 3
    m_TexEnvs:
    - _MainTex:
        m_Texture: {fileID: 1560150605239180512}
        m_Scale: {x: 1, y: 1}
        m_Offset: {x: 0, y: 0}
    - _MaskTex:
        m_Texture: {fileID: 0}
        m_Scale: {x: 1, y: 1}
        m_Offset: {x: 0, y: 0}
    m_Ints: []
    m_Floats:
    - _ColorMask: 15
    - _CullMode: 0
    - _FaceDilate: 0
    - _GradientScale: 10
    - _MaskEdgeSoftness: 0.01
    - _MaskInverse: 0
    - _MaskSoftnessX: 0
    - _MaskSoftnessY: 0
    - _MaskWipeControl: 0.5
    - _OutlineSoftness: 0
    - _OutlineWidth: 0
    - _PerspectiveFilter: 0.875
    - _ScaleRatioA: 1
    - _ScaleRatioB: 1
    - _ScaleRatioC: 1
    - _ScaleX: 1
    - _ScaleY: 1
    - _ShaderFlags: 0
    - _Sharpness: 0
    - _Stencil: 0
    - _StencilComp: 8
    - _StencilOp: 0
    - _StencilReadMask: 255
    - _StencilWriteMask: 255
    - _TextureHeight: 1024
    - _TextureWidth: 1024
    - _UnderlayDilate: 0
    - _UnderlayOffsetX: 0
    - _UnderlayOffsetY: 0
    - _UnderlaySoftness: 0
    - _VertexOffsetX: 0
    - _VertexOffsetY: 0
    - _WeightBold: 0.75
    - _WeightNormal: 0
    m_Colors:
    - _ClipRect: {r: -32767, g: -32767, b: 32767, a: 32767}
    - _FaceColor: {r: 1, g: 1, b: 1, a: 1}
    - _MaskEdgeColor: {r: 1, g: 1, b: 1, a: 1}
    - _OutlineColor: {r: 0, g: 0, b: 0, a: 1}
    - _UnderlayColor: {r: 0, g: 0, b: 0, a: 0.5}
  m_BuildTextureStacks: []
--- !u!114 &11400000
MonoBehaviour:
  m_ObjectHideFlags: 0
  m_CorrespondingSourceObject: {fileID: 0}
  m_PrefabInstance: {fileID: 0}
  m_PrefabAsset: {fileID: 0}
  m_GameObject: {fileID: 0}
  m_Enabled: 1
  m_EditorHideFlags: 0
  m_Script: {fileID: 11500000, guid: 9a8fdda5b4c5f6544bbac8a17c59089c, type: 3}
  m_Name: MYRIADPRO-REGULAR SDF
  m_EditorClassIdentifier: 
  m_Version: 1.1.0
  m_Material: {fileID: -2161519926005067393}
  m_SourceFontFileGUID: d3bcfca36905d5b4a951e73785593bef
  m_SourceFontFile_EditorRef: {fileID: 12800000, guid: d3bcfca36905d5b4a951e73785593bef, type: 3}
  m_SourceFontFile: {fileID: 12800000, guid: d3bcfca36905d5b4a951e73785593bef, type: 3}
  m_AtlasPopulationMode: 1
  m_FaceInfo:
    m_FaceIndex: 0
    m_FamilyName: Myriad Pro
    m_StyleName: Regular
    m_PointSize: 90
    m_Scale: 1
    m_LineHeight: 108.00001
    m_AscentLine: 67.5
    m_CapLine: 61
    m_MeanLine: 44
    m_Baseline: 0
    m_DescentLine: -22.5
    m_SuperscriptOffset: 67.5
    m_SuperscriptSize: 0.5
    m_SubscriptOffset: -22.5
    m_SubscriptSize: 0.5
    m_UnderlineOffset: -9
    m_UnderlineThickness: 4.5
    m_StrikethroughOffset: 17.6
    m_StrikethroughThickness: 4.5
    m_TabWidth: 19
  m_FontWeightTable:
  - regularTypeface: {fileID: 0}
    italicTypeface: {fileID: 0}
  - regularTypeface: {fileID: 0}
    italicTypeface: {fileID: 0}
  - regularTypeface: {fileID: 0}
    italicTypeface: {fileID: 0}
  - regularTypeface: {fileID: 0}
    italicTypeface: {fileID: 0}
  - regularTypeface: {fileID: 0}
    italicTypeface: {fileID: 0}
  - regularTypeface: {fileID: 0}
    italicTypeface: {fileID: 0}
  - regularTypeface: {fileID: 0}
    italicTypeface: {fileID: 0}
  - regularTypeface: {fileID: 0}
    italicTypeface: {fileID: 0}
  - regularTypeface: {fileID: 0}
    italicTypeface: {fileID: 0}
  - regularTypeface: {fileID: 0}
    italicTypeface: {fileID: 0}
  m_GlyphTable: []
  m_CharacterTable: []
  m_AtlasTextures:
  - {fileID: 1560150605239180512}
  m_AtlasTextureIndex: 0
  m_IsMultiAtlasTexturesEnabled: 0
  m_ClearDynamicDataOnBuild: 0
  m_AtlasWidth: 1024
  m_AtlasHeight: 1024
  m_AtlasPadding: 9
  m_AtlasRenderMode: 4165
  m_UsedGlyphRects: []
  m_FreeGlyphRects:
  - m_X: 0
    m_Y: 0
    m_Width: 1023
    m_Height: 1023
  m_FontFeatureTable:
    m_GlyphPairAdjustmentRecords: []
  m_FallbackFontAssetTable: []
  m_fontAssetCreationEditorSettings:
    sourceFontFileGUID: d3bcfca36905d5b4a951e73785593bef
    pointSizeSamplingMode: 0
    pointSize: 90
    padding: 9
    packingMode: 0
    atlasWidth: 1024
    atlasHeight: 1024
    characterSetSelectionMode: 7
    characterSequence: 
    referencedFontAssetGUID: 
    referencedTextAssetGUID: 
    fontStyle: 0
    fontStyleModifier: 0
    renderMode: 4165
    includeFontFeatures: 0
  m_RegularStyleWeight: 0
  m_RegularStyleSpacing: 0
  m_BoldStyleWeight: 0.75
  m_BoldStyleSpacing: 7
  m_ItalicStyleSlant: 35
  m_TabMultiple: 10
--- !u!28 &1560150605239180512
Texture2D:
  m_ObjectHideFlags: 0
  m_CorrespondingSourceObject: {fileID: 0}
  m_PrefabInstance: {fileID: 0}
  m_PrefabAsset: {fileID: 0}
  m_Name: MYRIADPRO-REGULAR Atlas
  m_ImageContentsHash:
    serializedVersion: 2
    Hash: 00000000000000000000000000000000
  m_ForcedFallbackFormat: 4
  m_DownscaleFallback: 0
  m_IsAlphaChannelOptional: 0
  serializedVersion: 2
  m_Width: 0
  m_Height: 0
  m_CompleteImageSize: 0
  m_MipsStripped: 0
  m_TextureFormat: 1
  m_MipCount: 1
  m_IsReadable: 1
  m_IsPreProcessed: 0
  m_IgnoreMasterTextureLimit: 0
  m_StreamingMipmaps: 0
  m_StreamingMipmapsPriority: 0
  m_VTOnly: 0
  m_AlphaIsTransparency: 0
  m_ImageCount: 1
  m_TextureDimension: 2
  m_TextureSettings:
    serializedVersion: 2
    m_FilterMode: 1
    m_Aniso: 1
    m_MipBias: 0
    m_WrapU: 0
    m_WrapV: 0
    m_WrapW: 0
  m_LightmapFormat: 0
  m_ColorSpace: 0
  m_PlatformBlob: 
  image data: 0
  _typelessdata: 
  m_StreamData:
    serializedVersion: 2
    offset: 0
    size: 0
    path: 
