%YAML 1.1
%TAG !u! tag:unity3d.com,2011:
--- !u!114 &11400000
MonoBehaviour:
  m_ObjectHideFlags: 0
  m_CorrespondingSourceObject: {fileID: 0}
  m_PrefabInstance: {fileID: 0}
  m_PrefabAsset: {fileID: 0}
  m_GameObject: {fileID: 0}
  m_Enabled: 1
  m_EditorHideFlags: 0
  m_Script: {fileID: 11500000, guid: 0a11556f4b7c4b85bf1008861e7996fa, type: 3}
  m_Name: WL_OceanWindy
  m_EditorClassIdentifier: 
  spectrum: {fileID: 11400000, guid: cbfeecfaaf418a545a900900c61248e2, type: 2}
  oceanSoundSwitch:
    idInternal: 0
    valueGuidInternal: 
    groupIdInternal: 0
    groupGuidInternal: 
    WwiseObjectReference: {fileID: 11400000, guid: b063093e31dc61945adc14862543de66, type: 2}
