%YAML 1.1
%TAG !u! tag:unity3d.com,2011:
--- !u!1 &818902658081397563
GameObject:
  m_ObjectHideFlags: 0
  m_CorrespondingSourceObject: {fileID: 0}
  m_PrefabInstance: {fileID: 0}
  m_PrefabAsset: {fileID: 0}
  serializedVersion: 6
  m_Component:
  - component: {fileID: 8435318662313748019}
  m_Layer: 0
  m_Name: Reef_SPL_Comp_A
  m_TagString: Untagged
  m_Icon: {fileID: 0}
  m_NavMeshLayer: 0
  m_StaticEditorFlags: 0
  m_IsActive: 1
--- !u!4 &8435318662313748019
Transform:
  m_ObjectHideFlags: 0
  m_CorrespondingSourceObject: {fileID: 0}
  m_PrefabInstance: {fileID: 0}
  m_PrefabAsset: {fileID: 0}
  m_GameObject: {fileID: 818902658081397563}
  m_LocalRotation: {x: 0, y: 0, z: 0, w: 1}
  m_LocalPosition: {x: 108.24662, y: -16.306618, z: 1376.5}
  m_LocalScale: {x: 1, y: 1, z: 1}
  m_Children:
  - {fileID: 7824750636162791443}
  - {fileID: 3878048627819525713}
  m_Father: {fileID: 0}
  m_RootOrder: 0
  m_LocalEulerAnglesHint: {x: 0, y: 0, z: 0}
--- !u!1001 &8287574783002286552
PrefabInstance:
  m_ObjectHideFlags: 0
  serializedVersion: 2
  m_Modification:
    m_TransformParent: {fileID: 8435318662313748019}
    m_Modifications:
    - target: {fileID: 1504106380072123249, guid: ecf6f076a564c79439de3f08e761dcb5, type: 3}
      propertyPath: m_Name
      value: Reef_Comp_Simple_A
      objectReference: {fileID: 0}
    - target: {fileID: 1682394158473761022, guid: ecf6f076a564c79439de3f08e761dcb5, type: 3}
      propertyPath: m_LocalPosition.x
      value: -3.46
      objectReference: {fileID: 0}
    - target: {fileID: 1682394158473761022, guid: ecf6f076a564c79439de3f08e761dcb5, type: 3}
      propertyPath: m_LocalPosition.y
      value: 4.93
      objectReference: {fileID: 0}
    - target: {fileID: 1682394158473761022, guid: ecf6f076a564c79439de3f08e761dcb5, type: 3}
      propertyPath: m_LocalPosition.z
      value: -0.48
      objectReference: {fileID: 0}
    - target: {fileID: 1682394158473761022, guid: ecf6f076a564c79439de3f08e761dcb5, type: 3}
      propertyPath: m_LocalRotation.w
      value: 0.99191684
      objectReference: {fileID: 0}
    - target: {fileID: 1682394158473761022, guid: ecf6f076a564c79439de3f08e761dcb5, type: 3}
      propertyPath: m_LocalRotation.x
      value: -0.11212361
      objectReference: {fileID: 0}
    - target: {fileID: 1682394158473761022, guid: ecf6f076a564c79439de3f08e761dcb5, type: 3}
      propertyPath: m_LocalRotation.y
      value: 0.05658177
      objectReference: {fileID: 0}
    - target: {fileID: 1682394158473761022, guid: ecf6f076a564c79439de3f08e761dcb5, type: 3}
      propertyPath: m_LocalRotation.z
      value: 0.018105866
      objectReference: {fileID: 0}
    - target: {fileID: 1682394158473761022, guid: ecf6f076a564c79439de3f08e761dcb5, type: 3}
      propertyPath: m_LocalEulerAnglesHint.x
      value: -12.973
      objectReference: {fileID: 0}
    - target: {fileID: 1682394158473761022, guid: ecf6f076a564c79439de3f08e761dcb5, type: 3}
      propertyPath: m_LocalEulerAnglesHint.y
      value: 6.374
      objectReference: {fileID: 0}
    - target: {fileID: 1682394158473761022, guid: ecf6f076a564c79439de3f08e761dcb5, type: 3}
      propertyPath: m_LocalEulerAnglesHint.z
      value: 1.366
      objectReference: {fileID: 0}
    - target: {fileID: 2275576082657223115, guid: ecf6f076a564c79439de3f08e761dcb5, type: 3}
      propertyPath: m_RootOrder
      value: 0
      objectReference: {fileID: 0}
    - target: {fileID: 2275576082657223115, guid: ecf6f076a564c79439de3f08e761dcb5, type: 3}
      propertyPath: m_LocalScale.x
      value: 3.8210292
      objectReference: {fileID: 0}
    - target: {fileID: 2275576082657223115, guid: ecf6f076a564c79439de3f08e761dcb5, type: 3}
      propertyPath: m_LocalScale.y
      value: 4.599337
      objectReference: {fileID: 0}
    - target: {fileID: 2275576082657223115, guid: ecf6f076a564c79439de3f08e761dcb5, type: 3}
      propertyPath: m_LocalScale.z
      value: 4.9766755
      objectReference: {fileID: 0}
    - target: {fileID: 2275576082657223115, guid: ecf6f076a564c79439de3f08e761dcb5, type: 3}
      propertyPath: m_LocalPosition.x
      value: 15.953377
      objectReference: {fileID: 0}
    - target: {fileID: 2275576082657223115, guid: ecf6f076a564c79439de3f08e761dcb5, type: 3}
      propertyPath: m_LocalPosition.y
      value: 10.006618
      objectReference: {fileID: 0}
    - target: {fileID: 2275576082657223115, guid: ecf6f076a564c79439de3f08e761dcb5, type: 3}
      propertyPath: m_LocalPosition.z
      value: 29.599976
      objectReference: {fileID: 0}
    - target: {fileID: 2275576082657223115, guid: ecf6f076a564c79439de3f08e761dcb5, type: 3}
      propertyPath: m_LocalRotation.w
      value: 0.4931881
      objectReference: {fileID: 0}
    - target: {fileID: 2275576082657223115, guid: ecf6f076a564c79439de3f08e761dcb5, type: 3}
      propertyPath: m_LocalRotation.x
      value: 0.0715778
      objectReference: {fileID: 0}
    - target: {fileID: 2275576082657223115, guid: ecf6f076a564c79439de3f08e761dcb5, type: 3}
      propertyPath: m_LocalRotation.y
      value: -0.86330265
      objectReference: {fileID: 0}
    - target: {fileID: 2275576082657223115, guid: ecf6f076a564c79439de3f08e761dcb5, type: 3}
      propertyPath: m_LocalRotation.z
      value: 0.07969072
      objectReference: {fileID: 0}
    - target: {fileID: 2275576082657223115, guid: ecf6f076a564c79439de3f08e761dcb5, type: 3}
      propertyPath: m_LocalEulerAnglesHint.x
      value: 12.017
      objectReference: {fileID: 0}
    - target: {fileID: 2275576082657223115, guid: ecf6f076a564c79439de3f08e761dcb5, type: 3}
      propertyPath: m_LocalEulerAnglesHint.y
      value: -120.801
      objectReference: {fileID: 0}
    - target: {fileID: 2275576082657223115, guid: ecf6f076a564c79439de3f08e761dcb5, type: 3}
      propertyPath: m_LocalEulerAnglesHint.z
      value: -2.636
      objectReference: {fileID: 0}
    - target: {fileID: 3421728177861275678, guid: ecf6f076a564c79439de3f08e761dcb5, type: 3}
      propertyPath: m_LocalPosition.x
      value: 1.48
      objectReference: {fileID: 0}
    - target: {fileID: 3421728177861275678, guid: ecf6f076a564c79439de3f08e761dcb5, type: 3}
      propertyPath: m_LocalPosition.y
      value: 0.32
      objectReference: {fileID: 0}
    - target: {fileID: 3421728177861275678, guid: ecf6f076a564c79439de3f08e761dcb5, type: 3}
      propertyPath: m_LocalPosition.z
      value: 5.82
      objectReference: {fileID: 0}
    - target: {fileID: 3421728177861275678, guid: ecf6f076a564c79439de3f08e761dcb5, type: 3}
      propertyPath: m_LocalRotation.w
      value: 0.9808899
      objectReference: {fileID: 0}
    - target: {fileID: 3421728177861275678, guid: ecf6f076a564c79439de3f08e761dcb5, type: 3}
      propertyPath: m_LocalRotation.x
      value: -0.15331163
      objectReference: {fileID: 0}
    - target: {fileID: 3421728177861275678, guid: ecf6f076a564c79439de3f08e761dcb5, type: 3}
      propertyPath: m_LocalRotation.y
      value: -0.118356705
      objectReference: {fileID: 0}
    - target: {fileID: 3421728177861275678, guid: ecf6f076a564c79439de3f08e761dcb5, type: 3}
      propertyPath: m_LocalRotation.z
      value: 0.018498972
      objectReference: {fileID: 0}
    - target: {fileID: 3421728177861275678, guid: ecf6f076a564c79439de3f08e761dcb5, type: 3}
      propertyPath: m_LocalEulerAnglesHint.x
      value: -17.241
      objectReference: {fileID: 0}
    - target: {fileID: 3421728177861275678, guid: ecf6f076a564c79439de3f08e761dcb5, type: 3}
      propertyPath: m_LocalEulerAnglesHint.y
      value: -14.421
      objectReference: {fileID: 0}
    - target: {fileID: 3421728177861275678, guid: ecf6f076a564c79439de3f08e761dcb5, type: 3}
      propertyPath: m_LocalEulerAnglesHint.z
      value: 4.358
      objectReference: {fileID: 0}
    m_RemovedComponents: []
  m_SourcePrefab: {fileID: 100100000, guid: ecf6f076a564c79439de3f08e761dcb5, type: 3}
--- !u!4 &7824750636162791443 stripped
Transform:
  m_CorrespondingSourceObject: {fileID: 2275576082657223115, guid: ecf6f076a564c79439de3f08e761dcb5, type: 3}
  m_PrefabInstance: {fileID: 8287574783002286552}
  m_PrefabAsset: {fileID: 0}
--- !u!1001 &8287574784640565494
PrefabInstance:
  m_ObjectHideFlags: 0
  serializedVersion: 2
  m_Modification:
    m_TransformParent: {fileID: 8435318662313748019}
    m_Modifications:
    - target: {fileID: 205616173923804389, guid: 4ffd0624a2de3d146bf352f9073d611b, type: 3}
      propertyPath: m_CastShadows
      value: 0
      objectReference: {fileID: 0}
    - target: {fileID: 469718835833908720, guid: 4ffd0624a2de3d146bf352f9073d611b, type: 3}
      propertyPath: m_CastShadows
      value: 0
      objectReference: {fileID: 0}
    - target: {fileID: 1034750326288468973, guid: 4ffd0624a2de3d146bf352f9073d611b, type: 3}
      propertyPath: m_CastShadows
      value: 0
      objectReference: {fileID: 0}
    - target: {fileID: 1288442521239984078, guid: 4ffd0624a2de3d146bf352f9073d611b, type: 3}
      propertyPath: m_CastShadows
      value: 0
      objectReference: {fileID: 0}
    - target: {fileID: 1778584656624305649, guid: 4ffd0624a2de3d146bf352f9073d611b, type: 3}
      propertyPath: m_CastShadows
      value: 0
      objectReference: {fileID: 0}
    - target: {fileID: 1993329324208994251, guid: 4ffd0624a2de3d146bf352f9073d611b, type: 3}
      propertyPath: m_CastShadows
      value: 0
      objectReference: {fileID: 0}
    - target: {fileID: 1998506497276384681, guid: 4ffd0624a2de3d146bf352f9073d611b, type: 3}
      propertyPath: m_CastShadows
      value: 0
      objectReference: {fileID: 0}
    - target: {fileID: 2538425729382028235, guid: 4ffd0624a2de3d146bf352f9073d611b, type: 3}
      propertyPath: m_CastShadows
      value: 0
      objectReference: {fileID: 0}
    - target: {fileID: 2748608664706997437, guid: 4ffd0624a2de3d146bf352f9073d611b, type: 3}
      propertyPath: m_CastShadows
      value: 0
      objectReference: {fileID: 0}
    - target: {fileID: 3116742322074523865, guid: 4ffd0624a2de3d146bf352f9073d611b, type: 3}
      propertyPath: m_CastShadows
      value: 0
      objectReference: {fileID: 0}
    - target: {fileID: 3137973407987346392, guid: 4ffd0624a2de3d146bf352f9073d611b, type: 3}
      propertyPath: m_CastShadows
      value: 0
      objectReference: {fileID: 0}
    - target: {fileID: 3338673390213772490, guid: 4ffd0624a2de3d146bf352f9073d611b, type: 3}
      propertyPath: m_CastShadows
      value: 0
      objectReference: {fileID: 0}
    - target: {fileID: 3599596551489904806, guid: 4ffd0624a2de3d146bf352f9073d611b, type: 3}
      propertyPath: m_CastShadows
      value: 0
      objectReference: {fileID: 0}
    - target: {fileID: 3663677033039918682, guid: 4ffd0624a2de3d146bf352f9073d611b, type: 3}
      propertyPath: m_CastShadows
      value: 0
      objectReference: {fileID: 0}
    - target: {fileID: 3881730943093094532, guid: 4ffd0624a2de3d146bf352f9073d611b, type: 3}
      propertyPath: m_CastShadows
      value: 0
      objectReference: {fileID: 0}
    - target: {fileID: 4225271321379514765, guid: 4ffd0624a2de3d146bf352f9073d611b, type: 3}
      propertyPath: m_CastShadows
      value: 0
      objectReference: {fileID: 0}
    - target: {fileID: 4378668447236935040, guid: 4ffd0624a2de3d146bf352f9073d611b, type: 3}
      propertyPath: m_CastShadows
      value: 0
      objectReference: {fileID: 0}
    - target: {fileID: 4558713370995352555, guid: 4ffd0624a2de3d146bf352f9073d611b, type: 3}
      propertyPath: m_CastShadows
      value: 0
      objectReference: {fileID: 0}
    - target: {fileID: 4816203986606805345, guid: 4ffd0624a2de3d146bf352f9073d611b, type: 3}
      propertyPath: m_CastShadows
      value: 0
      objectReference: {fileID: 0}
    - target: {fileID: 4959282249290411143, guid: 4ffd0624a2de3d146bf352f9073d611b, type: 3}
      propertyPath: m_CastShadows
      value: 0
      objectReference: {fileID: 0}
    - target: {fileID: 5103416159720699559, guid: 4ffd0624a2de3d146bf352f9073d611b, type: 3}
      propertyPath: m_RootOrder
      value: 1
      objectReference: {fileID: 0}
    - target: {fileID: 5103416159720699559, guid: 4ffd0624a2de3d146bf352f9073d611b, type: 3}
      propertyPath: m_LocalScale.x
      value: 3.934
      objectReference: {fileID: 0}
    - target: {fileID: 5103416159720699559, guid: 4ffd0624a2de3d146bf352f9073d611b, type: 3}
      propertyPath: m_LocalScale.y
      value: 3.934
      objectReference: {fileID: 0}
    - target: {fileID: 5103416159720699559, guid: 4ffd0624a2de3d146bf352f9073d611b, type: 3}
      propertyPath: m_LocalScale.z
      value: 3.934
      objectReference: {fileID: 0}
    - target: {fileID: 5103416159720699559, guid: 4ffd0624a2de3d146bf352f9073d611b, type: 3}
      propertyPath: m_LocalPosition.x
      value: 0.3533783
      objectReference: {fileID: 0}
    - target: {fileID: 5103416159720699559, guid: 4ffd0624a2de3d146bf352f9073d611b, type: 3}
      propertyPath: m_LocalPosition.y
      value: 0.0066184998
      objectReference: {fileID: 0}
    - target: {fileID: 5103416159720699559, guid: 4ffd0624a2de3d146bf352f9073d611b, type: 3}
      propertyPath: m_LocalPosition.z
      value: -18.300049
      objectReference: {fileID: 0}
    - target: {fileID: 5103416159720699559, guid: 4ffd0624a2de3d146bf352f9073d611b, type: 3}
      propertyPath: m_LocalRotation.w
      value: 0.9959912
      objectReference: {fileID: 0}
    - target: {fileID: 5103416159720699559, guid: 4ffd0624a2de3d146bf352f9073d611b, type: 3}
      propertyPath: m_LocalRotation.x
      value: -0
      objectReference: {fileID: 0}
    - target: {fileID: 5103416159720699559, guid: 4ffd0624a2de3d146bf352f9073d611b, type: 3}
      propertyPath: m_LocalRotation.y
      value: -0
      objectReference: {fileID: 0}
    - target: {fileID: 5103416159720699559, guid: 4ffd0624a2de3d146bf352f9073d611b, type: 3}
      propertyPath: m_LocalRotation.z
      value: -0.089451484
      objectReference: {fileID: 0}
    - target: {fileID: 5103416159720699559, guid: 4ffd0624a2de3d146bf352f9073d611b, type: 3}
      propertyPath: m_LocalEulerAnglesHint.x
      value: 0
      objectReference: {fileID: 0}
    - target: {fileID: 5103416159720699559, guid: 4ffd0624a2de3d146bf352f9073d611b, type: 3}
      propertyPath: m_LocalEulerAnglesHint.y
      value: 0
      objectReference: {fileID: 0}
    - target: {fileID: 5103416159720699559, guid: 4ffd0624a2de3d146bf352f9073d611b, type: 3}
      propertyPath: m_LocalEulerAnglesHint.z
      value: -10.264
      objectReference: {fileID: 0}
    - target: {fileID: 5175221457916790140, guid: 4ffd0624a2de3d146bf352f9073d611b, type: 3}
      propertyPath: m_CastShadows
      value: 0
      objectReference: {fileID: 0}
    - target: {fileID: 5190752686410316163, guid: 4ffd0624a2de3d146bf352f9073d611b, type: 3}
      propertyPath: m_CastShadows
      value: 0
      objectReference: {fileID: 0}
    - target: {fileID: 5387656942747775860, guid: 4ffd0624a2de3d146bf352f9073d611b, type: 3}
      propertyPath: m_CastShadows
      value: 0
      objectReference: {fileID: 0}
    - target: {fileID: 5591545878202788893, guid: 4ffd0624a2de3d146bf352f9073d611b, type: 3}
      propertyPath: m_Name
      value: Reef_Comp_Thick_C
      objectReference: {fileID: 0}
    - target: {fileID: 6028120579285209706, guid: 4ffd0624a2de3d146bf352f9073d611b, type: 3}
      propertyPath: m_CastShadows
      value: 0
      objectReference: {fileID: 0}
    - target: {fileID: 6214308670833256253, guid: 4ffd0624a2de3d146bf352f9073d611b, type: 3}
      propertyPath: m_CastShadows
      value: 0
      objectReference: {fileID: 0}
    - target: {fileID: 6243303988874347143, guid: 4ffd0624a2de3d146bf352f9073d611b, type: 3}
      propertyPath: m_CastShadows
      value: 0
      objectReference: {fileID: 0}
    - target: {fileID: 6253754671669075859, guid: 4ffd0624a2de3d146bf352f9073d611b, type: 3}
      propertyPath: m_LocalPosition.x
      value: 1.92
      objectReference: {fileID: 0}
    - target: {fileID: 6253754671669075859, guid: 4ffd0624a2de3d146bf352f9073d611b, type: 3}
      propertyPath: m_LocalPosition.y
      value: -2.96
      objectReference: {fileID: 0}
    - target: {fileID: 6253754671669075859, guid: 4ffd0624a2de3d146bf352f9073d611b, type: 3}
      propertyPath: m_LocalPosition.z
      value: 0.13
      objectReference: {fileID: 0}
    - target: {fileID: 6253754671669075859, guid: 4ffd0624a2de3d146bf352f9073d611b, type: 3}
      propertyPath: m_LocalRotation.w
      value: 0.9810075
      objectReference: {fileID: 0}
    - target: {fileID: 6253754671669075859, guid: 4ffd0624a2de3d146bf352f9073d611b, type: 3}
      propertyPath: m_LocalRotation.x
      value: -0.061515808
      objectReference: {fileID: 0}
    - target: {fileID: 6253754671669075859, guid: 4ffd0624a2de3d146bf352f9073d611b, type: 3}
      propertyPath: m_LocalRotation.y
      value: 0.18371114
      objectReference: {fileID: 0}
    - target: {fileID: 6253754671669075859, guid: 4ffd0624a2de3d146bf352f9073d611b, type: 3}
      propertyPath: m_LocalRotation.z
      value: 0.009506874
      objectReference: {fileID: 0}
    - target: {fileID: 6253754671669075859, guid: 4ffd0624a2de3d146bf352f9073d611b, type: 3}
      propertyPath: m_LocalEulerAnglesHint.x
      value: -7.134
      objectReference: {fileID: 0}
    - target: {fileID: 6253754671669075859, guid: 4ffd0624a2de3d146bf352f9073d611b, type: 3}
      propertyPath: m_LocalEulerAnglesHint.y
      value: 21.228
      objectReference: {fileID: 0}
    - target: {fileID: 6253754671669075859, guid: 4ffd0624a2de3d146bf352f9073d611b, type: 3}
      propertyPath: m_LocalEulerAnglesHint.z
      value: -0.228
      objectReference: {fileID: 0}
    - target: {fileID: 6985218625289824802, guid: 4ffd0624a2de3d146bf352f9073d611b, type: 3}
      propertyPath: m_CastShadows
      value: 0
      objectReference: {fileID: 0}
    - target: {fileID: 7132675906168761964, guid: 4ffd0624a2de3d146bf352f9073d611b, type: 3}
      propertyPath: m_CastShadows
      value: 0
      objectReference: {fileID: 0}
    - target: {fileID: 7133004119717038321, guid: 4ffd0624a2de3d146bf352f9073d611b, type: 3}
      propertyPath: m_CastShadows
      value: 0
      objectReference: {fileID: 0}
    - target: {fileID: 7450811196913443941, guid: 4ffd0624a2de3d146bf352f9073d611b, type: 3}
      propertyPath: m_CastShadows
      value: 0
      objectReference: {fileID: 0}
    - target: {fileID: 7568997170216771681, guid: 4ffd0624a2de3d146bf352f9073d611b, type: 3}
      propertyPath: m_CastShadows
      value: 0
      objectReference: {fileID: 0}
    - target: {fileID: 7795636652606077820, guid: 4ffd0624a2de3d146bf352f9073d611b, type: 3}
      propertyPath: m_CastShadows
      value: 0
      objectReference: {fileID: 0}
    - target: {fileID: 7815525169455046809, guid: 4ffd0624a2de3d146bf352f9073d611b, type: 3}
      propertyPath: m_CastShadows
      value: 0
      objectReference: {fileID: 0}
    - target: {fileID: 8365079548768523897, guid: 4ffd0624a2de3d146bf352f9073d611b, type: 3}
      propertyPath: m_CastShadows
      value: 0
      objectReference: {fileID: 0}
    - target: {fileID: 8444213700425238198, guid: 4ffd0624a2de3d146bf352f9073d611b, type: 3}
      propertyPath: m_CastShadows
      value: 0
      objectReference: {fileID: 0}
    - target: {fileID: 8460118027009298489, guid: 4ffd0624a2de3d146bf352f9073d611b, type: 3}
      propertyPath: m_LocalPosition.x
      value: 3.8
      objectReference: {fileID: 0}
    - target: {fileID: 8460118027009298489, guid: 4ffd0624a2de3d146bf352f9073d611b, type: 3}
      propertyPath: m_LocalPosition.y
      value: 0.02
      objectReference: {fileID: 0}
    - target: {fileID: 8460118027009298489, guid: 4ffd0624a2de3d146bf352f9073d611b, type: 3}
      propertyPath: m_LocalRotation.w
      value: 0.9973614
      objectReference: {fileID: 0}
    - target: {fileID: 8460118027009298489, guid: 4ffd0624a2de3d146bf352f9073d611b, type: 3}
      propertyPath: m_LocalRotation.x
      value: 0.013331685
      objectReference: {fileID: 0}
    - target: {fileID: 8460118027009298489, guid: 4ffd0624a2de3d146bf352f9073d611b, type: 3}
      propertyPath: m_LocalRotation.y
      value: 0.071340054
      objectReference: {fileID: 0}
    - target: {fileID: 8460118027009298489, guid: 4ffd0624a2de3d146bf352f9073d611b, type: 3}
      propertyPath: m_LocalRotation.z
      value: 0.0017565266
      objectReference: {fileID: 0}
    - target: {fileID: 8460118027009298489, guid: 4ffd0624a2de3d146bf352f9073d611b, type: 3}
      propertyPath: m_LocalEulerAnglesHint.x
      value: 1.509
      objectReference: {fileID: 0}
    - target: {fileID: 8460118027009298489, guid: 4ffd0624a2de3d146bf352f9073d611b, type: 3}
      propertyPath: m_LocalEulerAnglesHint.y
      value: 8.187
      objectReference: {fileID: 0}
    - target: {fileID: 8460118027009298489, guid: 4ffd0624a2de3d146bf352f9073d611b, type: 3}
      propertyPath: m_LocalEulerAnglesHint.z
      value: 0.31
      objectReference: {fileID: 0}
    - target: {fileID: 8467893497912464838, guid: 4ffd0624a2de3d146bf352f9073d611b, type: 3}
      propertyPath: m_CastShadows
      value: 0
      objectReference: {fileID: 0}
    - target: {fileID: 8515417810717472104, guid: 4ffd0624a2de3d146bf352f9073d611b, type: 3}
      propertyPath: m_CastShadows
      value: 0
      objectReference: {fileID: 0}
    - target: {fileID: 8529280461373541632, guid: 4ffd0624a2de3d146bf352f9073d611b, type: 3}
      propertyPath: m_CastShadows
      value: 0
      objectReference: {fileID: 0}
    - target: {fileID: 8655852797266685059, guid: 4ffd0624a2de3d146bf352f9073d611b, type: 3}
      propertyPath: m_CastShadows
      value: 0
      objectReference: {fileID: 0}
    - target: {fileID: 8746729790031965155, guid: 4ffd0624a2de3d146bf352f9073d611b, type: 3}
      propertyPath: m_CastShadows
      value: 0
      objectReference: {fileID: 0}
    - target: {fileID: 8761463491534790854, guid: 4ffd0624a2de3d146bf352f9073d611b, type: 3}
      propertyPath: m_CastShadows
      value: 0
      objectReference: {fileID: 0}
    m_RemovedComponents: []
  m_SourcePrefab: {fileID: 100100000, guid: 4ffd0624a2de3d146bf352f9073d611b, type: 3}
--- !u!4 &3878048627819525713 stripped
Transform:
  m_CorrespondingSourceObject: {fileID: 5103416159720699559, guid: 4ffd0624a2de3d146bf352f9073d611b, type: 3}
  m_PrefabInstance: {fileID: 8287574784640565494}
  m_PrefabAsset: {fileID: 0}
