%YAML 1.1
%TAG !u! tag:unity3d.com,2011:
--- !u!114 &11400000
MonoBehaviour:
  m_ObjectHideFlags: 0
  m_CorrespondingSourceObject: {fileID: 0}
  m_PrefabInstance: {fileID: 0}
  m_PrefabAsset: {fileID: 0}
  m_GameObject: {fileID: 0}
  m_Enabled: 1
  m_EditorHideFlags: 0
  m_Script: {fileID: 11500000, guid: 9d867562400b41bab5afce6e84f00390, type: 3}
  m_Name: TestLine
  m_EditorClassIdentifier: 
  voiceEvent:
    idInternal: 0
    valueGuidInternal: 
    WwiseObjectReference: {fileID: 11400000, guid: 7127dcabcc15d2b49b41c06fc35eebc4, type: 2}
  subtitle: '*Foghorn sound*'
  duration: 5
