%YAML 1.1
%TAG !u! tag:unity3d.com,2011:
--- !u!114 &11400000
MonoBehaviour:
  m_ObjectHideFlags: 0
  m_CorrespondingSourceObject: {fileID: 0}
  m_PrefabInstance: {fileID: 0}
  m_PrefabAsset: {fileID: 0}
  m_GameObject: {fileID: 0}
  m_Enabled: 1
  m_EditorHideFlags: 0
  m_Script: {fileID: 11500000, guid: 9d867562400b41bab5afce6e84f00390, type: 3}
  m_Name: Le calme avant
  m_EditorClassIdentifier: 
  voiceEvent:
    idInternal: 0
    valueGuidInternal: 
    WwiseObjectReference: {fileID: 11400000, guid: 002e38aad6a8ac04d8a890a41a059f4c, type: 2}
  subtitle: The calm before the storm...
  duration: 5
