%YAML 1.1
%TAG !u! tag:unity3d.com,2011:
--- !u!114 &11400000
MonoBehaviour:
  m_ObjectHideFlags: 0
  m_CorrespondingSourceObject: {fileID: 0}
  m_PrefabInstance: {fileID: 0}
  m_PrefabAsset: {fileID: 0}
  m_GameObject: {fileID: 0}
  m_Enabled: 1
  m_EditorHideFlags: 0
  m_Script: {fileID: 11500000, guid: 1c6380c867770ca4bbb3c0fe1ebb5076, type: 3}
  m_Name: 2A8539FB-7C6F-4DC1-A08B-1B3360ADDDE8
  m_EditorClassIdentifier: 
  objectName: Vitesse0
  id: 3410335958
  guid: 2A8539FB-7C6F-4DC1-A08B-1B3360ADDDE8
  WwiseSwitchGroupReference: {fileID: 11400000, guid: 6e46e8d7b1efb674d9b83538a2837585, type: 2}
