%YAML 1.1
%TAG !u! tag:unity3d.com,2011:
--- !u!114 &11400000
MonoBehaviour:
  m_ObjectHideFlags: 0
  m_CorrespondingSourceObject: {fileID: 0}
  m_PrefabInstance: {fileID: 0}
  m_PrefabAsset: {fileID: 0}
  m_GameObject: {fileID: 0}
  m_Enabled: 1
  m_EditorHideFlags: 0
  m_Script: {fileID: 11500000, guid: 1c6380c867770ca4bbb3c0fe1ebb5076, type: 3}
  m_Name: 6302EA7C-6899-48BD-A793-18A61D5BE3E5
  m_EditorClassIdentifier: 
  objectName: Vitesse1
  id: 3410335959
  guid: 6302EA7C-6899-48BD-A793-18A61D5BE3E5
  WwiseSwitchGroupReference: {fileID: 11400000, guid: 6e46e8d7b1efb674d9b83538a2837585, type: 2}
