%YAML 1.1
%TAG !u! tag:unity3d.com,2011:
--- !u!114 &11400000
MonoBehaviour:
  m_ObjectHideFlags: 0
  m_CorrespondingSourceObject: {fileID: 0}
  m_PrefabInstance: {fileID: 0}
  m_PrefabAsset: {fileID: 0}
  m_GameObject: {fileID: 0}
  m_Enabled: 1
  m_EditorHideFlags: 0
  m_Script: {fileID: 11500000, guid: 1c6380c867770ca4bbb3c0fe1ebb5076, type: 3}
  m_Name: E9BDAAA7-8505-4395-80F9-F645EB9966A0
  m_EditorClassIdentifier: 
  objectName: Boat_continue
  id: 3529601349
  guid: E9BDAAA7-8505-4395-80F9-F645EB9966A0
  WwiseSwitchGroupReference: {fileID: 11400000, guid: 141c353db4551824793b3e4e4b6cebbd, type: 2}
