%YAML 1.1
%TAG !u! tag:unity3d.com,2011:
--- !u!114 &11400000
MonoBehaviour:
  m_ObjectHideFlags: 0
  m_CorrespondingSourceObject: {fileID: 0}
  m_PrefabInstance: {fileID: 0}
  m_PrefabAsset: {fileID: 0}
  m_GameObject: {fileID: 0}
  m_Enabled: 1
  m_EditorHideFlags: 0
  m_Script: {fileID: 11500000, guid: 8c4d184f48b44d399900db8a51656ba4, type: 3}
  m_Name: WL_RainSoft
  m_EditorClassIdentifier: 
  intensity: 0.2
  dropsPerSeconds: 4
  rainSoundSwitch:
    idInternal: 0
    valueGuidInternal: 
    groupIdInternal: 0
    groupGuidInternal: 
    WwiseObjectReference: {fileID: 11400000, guid: 33c5d3fd271cf0844a919ce2386b3cc0, type: 2}
