%YAML 1.1
%TAG !u! tag:unity3d.com,2011:
--- !u!114 &11400000
MonoBehaviour:
  m_ObjectHideFlags: 0
  m_CorrespondingSourceObject: {fileID: 0}
  m_PrefabInstance: {fileID: 0}
  m_PrefabAsset: {fileID: 0}
  m_GameObject: {fileID: 0}
  m_Enabled: 1
  m_EditorHideFlags: 0
  m_Script: {fileID: 11500000, guid: af500026459d5224a82478434f21e85f, type: 3}
  m_Name: 5410EF83-E05A-4D75-AC3E-8B88B733437F
  m_EditorClassIdentifier: 
  objectName: Start_Seagulls
  id: 3795441706
  guid: 5410EF83-E05A-4D75-AC3E-8B88B733437F
  WwiseStateGroupReference: {fileID: 11400000, guid: fb6e92b5f6e31fb49892abf9d61df1ec, type: 2}
