%YAML 1.1
%TAG !u! tag:unity3d.com,2011:
--- !u!21 &2100000
Material:
  serializedVersion: 6
  m_ObjectHideFlags: 0
  m_CorrespondingSourceObject: {fileID: 0}
  m_PrefabInstance: {fileID: 0}
  m_PrefabAsset: {fileID: 0}
  m_Name: MAT_GhostField
  m_Shader: {fileID: -6465566751694194690, guid: ab0aa26f3a2d7e843821e09f64f23da3, type: 3}
  m_ShaderKeywords: _DOUBLESIDED_ON _SURFACE_TYPE_TRANSPARENT
  m_LightmapFlags: 4
  m_EnableInstancingVariants: 0
  m_DoubleSidedGI: 1
  m_CustomRenderQueue: 2750
  stringTagMap:
    MotionVector: User
    RenderType: Transparent
  disabledShaderPasses:
  - MOTIONVECTORS
  - TransparentDepthPrepass
  - TransparentDepthPostpass
  - TransparentBackface
  m_SavedProperties:
    serializedVersion: 3
    m_TexEnvs:
    - unity_Lightmaps:
        m_Texture: {fileID: 0}
        m_Scale: {x: 1, y: 1}
        m_Offset: {x: 0, y: 0}
    - unity_LightmapsInd:
        m_Texture: {fileID: 0}
        m_Scale: {x: 1, y: 1}
        m_Offset: {x: 0, y: 0}
    - unity_ShadowMasks:
        m_Texture: {fileID: 0}
        m_Scale: {x: 1, y: 1}
        m_Offset: {x: 0, y: 0}
    m_Ints: []
    m_Floats:
    - A: 60
    - B: -20
    - Distance: 0
    - Visibility: 1
    - _AddPrecomputedVelocity: 0
    - _AlphaCutoffEnable: 0
    - _AlphaDstBlend: 1
    - _AlphaSrcBlend: 1
    - _AlphaToMask: 0
    - _AlphaToMaskInspectorValue: 0
    - _BlendMode: 1
    - _CullMode: 0
    - _CullModeForward: 0
    - _DepthOffsetEnable: 0
    - _DoubleSidedEnable: 1
    - _DoubleSidedNormalMode: 2
    - _DstBlend: 1
    - _EnableBlendModePreserveSpecularLighting: 0
    - _EnableFogOnTransparent: 0
    - _Float: 200
    - _Offset: -30
    - _OpaqueCullMode: 2
    - _RenderQueueType: 3
    - _SrcBlend: 1
    - _StencilRef: 0
    - _StencilRefDepth: 0
    - _StencilRefDistortionVec: 4
    - _StencilRefGBuffer: 2
    - _StencilRefMV: 32
    - _StencilWriteMask: 6
    - _StencilWriteMaskDepth: 8
    - _StencilWriteMaskDistortionVec: 4
    - _StencilWriteMaskGBuffer: 14
    - _StencilWriteMaskMV: 40
    - _SurfaceType: 1
    - _TransparentBackfaceEnable: 0
    - _TransparentCullMode: 2
    - _TransparentDepthPostpassEnable: 0
    - _TransparentDepthPrepassEnable: 0
    - _TransparentSortPriority: 0
    - _TransparentWritingMotionVec: 0
    - _TransparentZWrite: 0
    - _UseShadowThreshold: 0
    - _ZTestDepthEqualForOpaque: 4
    - _ZTestGBuffer: 4
    - _ZTestTransparent: 4
    - _ZWrite: 0
    m_Colors:
    - Vector2: {r: 0, g: 80, b: 0, a: 0}
    - _Color: {r: 1.5529412, g: 2.9960785, b: 2.27451, a: 0}
    - _DoubleSidedConstants: {r: 1, g: 1, b: -1, a: 0}
    - _EmissionColor: {r: 1, g: 1, b: 1, a: 1}
  m_BuildTextureStacks: []
--- !u!114 &1493067476583561573
MonoBehaviour:
  m_ObjectHideFlags: 11
  m_CorrespondingSourceObject: {fileID: 0}
  m_PrefabInstance: {fileID: 0}
  m_PrefabAsset: {fileID: 0}
  m_GameObject: {fileID: 0}
  m_Enabled: 1
  m_EditorHideFlags: 0
  m_Script: {fileID: 11500000, guid: da692e001514ec24dbc4cca1949ff7e8, type: 3}
  m_Name: 
  m_EditorClassIdentifier: 
  version: 11
