%YAML 1.1
%TAG !u! tag:unity3d.com,2011:
--- !u!1045 &1
EditorBuildSettings:
  m_ObjectHideFlags: 0
  serializedVersion: 2
  m_Scenes:
  - enabled: 1
    path: Assets/Scenes/MainMenu.unity
    guid: 55b1314ab20b6a14aa48a3eaf29571d5
  - enabled: 1
    path: Assets/Scenes/MainScene.unity
    guid: abc56ac5ab64d8640bf51a5ca5a54b08
  m_configObjects:
    com.unity.input.settings: {fileID: 11400000, guid: 818f98c6e0a819940b95c4dfa77fdbf3, type: 2}
