%YAML 1.1
%TAG !u! tag:unity3d.com,2011:
--- !u!114 &-3513408503694652810
MonoBehaviour:
  m_ObjectHideFlags: 3
  m_CorrespondingSourceObject: {fileID: 0}
  m_PrefabInstance: {fileID: 0}
  m_PrefabAsset: {fileID: 0}
  m_GameObject: {fileID: 0}
  m_Enabled: 1
  m_EditorHideFlags: 0
  m_Script: {fileID: 11500000, guid: 953beb541740ddc499d005ee80c9ff29, type: 3}
  m_Name: Fog
  m_EditorClassIdentifier: 
  active: 1
  m_AdvancedMode: 0
  quality:
    m_OverrideState: 1
    m_Value: 1
  enabled:
    m_OverrideState: 1
    m_Value: 1
  colorMode:
    m_OverrideState: 1
    m_Value: 1
  color:
    m_OverrideState: 1
    m_Value: {r: 1325.862, g: 1325.862, b: 1325.862, a: 1}
    hdr: 1
    showAlpha: 0
    showEyeDropper: 1
  tint:
    m_OverrideState: 0
    m_Value: {r: 1.2980342, g: 2.9339128, b: 3.3962264, a: 1}
    hdr: 1
    showAlpha: 0
    showEyeDropper: 1
  maxFogDistance:
    m_OverrideState: 1
    m_Value: 50
    min: 0
  mipFogMaxMip:
    m_OverrideState: 0
    m_Value: 0.5
    min: 0
    max: 1
  mipFogNear:
    m_OverrideState: 0
    m_Value: 0
    min: 0
  mipFogFar:
    m_OverrideState: 0
    m_Value: 1000
    min: 0
  baseHeight:
    m_OverrideState: 1
    m_Value: 15
  maximumHeight:
    m_OverrideState: 1
    m_Value: 15
  meanFreePath:
    m_OverrideState: 1
    m_Value: 10
    min: 1
  enableVolumetricFog:
    m_OverrideState: 1
    m_Value: 1
  albedo:
    m_OverrideState: 1
    m_Value: {r: 1, g: 1, b: 1, a: 1}
    hdr: 0
    showAlpha: 1
    showEyeDropper: 1
  globalLightProbeDimmer:
    m_OverrideState: 1
    m_Value: 0.6
    min: 0
    max: 1
  depthExtent:
    m_OverrideState: 1
    m_Value: 50
    min: 0.1
  denoisingMode:
    m_OverrideState: 1
    m_Value: 2
  anisotropy:
    m_OverrideState: 1
    m_Value: 0.65
    min: -1
    max: 1
  sliceDistributionUniformity:
    m_OverrideState: 0
    m_Value: 0.75
    min: 0
    max: 1
  m_FogControlMode:
    m_OverrideState: 1
    m_Value: 0
  screenResolutionPercentage:
    m_OverrideState: 0
    m_Value: 12.5
    min: 6.25
    max: 100
  volumeSliceCount:
    m_OverrideState: 0
    m_Value: 64
    min: 1
    max: 1024
  m_VolumetricFogBudget:
    m_OverrideState: 1
    m_Value: 0.33
    min: 0
    max: 1
  m_ResolutionDepthRatio:
    m_OverrideState: 1
    m_Value: 0.666
    min: 0
    max: 1
  directionalLightsOnly:
    m_OverrideState: 0
    m_Value: 0
--- !u!114 &-1215281703203147022
MonoBehaviour:
  m_ObjectHideFlags: 3
  m_CorrespondingSourceObject: {fileID: 0}
  m_PrefabInstance: {fileID: 0}
  m_PrefabAsset: {fileID: 0}
  m_GameObject: {fileID: 0}
  m_Enabled: 1
  m_EditorHideFlags: 0
  m_Script: {fileID: 11500000, guid: a81bcacc415a1f743bfdf703afc52027, type: 3}
  m_Name: GradientSky
  m_EditorClassIdentifier: 
  active: 1
  m_AdvancedMode: 0
  rotation:
    m_OverrideState: 0
    m_Value: 0
    min: 0
    max: 360
  skyIntensityMode:
    m_OverrideState: 1
    m_Value: 0
  exposure:
    m_OverrideState: 1
    m_Value: 8.77
  multiplier:
    m_OverrideState: 1
    m_Value: 300
    min: 0
  upperHemisphereLuxValue:
    m_OverrideState: 0
    m_Value: 1
    min: 0
  upperHemisphereLuxColor:
    m_OverrideState: 0
    m_Value: {x: 0, y: 0, z: 0}
  desiredLuxValue:
    m_OverrideState: 0
    m_Value: 20000
  updateMode:
    m_OverrideState: 0
    m_Value: 0
  updatePeriod:
    m_OverrideState: 0
    m_Value: 0
    min: 0
  includeSunInBaking:
    m_OverrideState: 0
    m_Value: 0
  top:
    m_OverrideState: 1
    m_Value: {r: 0.3989409, g: 0.5188679, b: 0.48773125, a: 1}
    hdr: 1
    showAlpha: 0
    showEyeDropper: 1
  middle:
    m_OverrideState: 1
    m_Value: {r: 0.14509805, g: 0.3019608, b: 0.21943614, a: 1}
    hdr: 1
    showAlpha: 0
    showEyeDropper: 1
  bottom:
    m_OverrideState: 1
    m_Value: {r: 0.08708616, g: 0.1792453, b: 0.11893233, a: 1}
    hdr: 1
    showAlpha: 0
    showEyeDropper: 1
  gradientDiffusion:
    m_OverrideState: 1
    m_Value: 0
--- !u!114 &11400000
MonoBehaviour:
  m_ObjectHideFlags: 0
  m_CorrespondingSourceObject: {fileID: 0}
  m_PrefabInstance: {fileID: 0}
  m_PrefabAsset: {fileID: 0}
  m_GameObject: {fileID: 0}
  m_Enabled: 1
  m_EditorHideFlags: 0
  m_Script: {fileID: 11500000, guid: d7fd9488000d3734a9e00ee676215985, type: 3}
  m_Name: Cemetery Transition Volume
  m_EditorClassIdentifier: 
  components:
  - {fileID: -3513408503694652810}
  - {fileID: -1215281703203147022}
